Starting:
--------------------------------------------
Loading problems [us]: 26178.651
--------------------------------------------

--------------------------------------------
Solving using: Ethalon
Solver description: Always return best solution for comparsion
Solved: 50 out of 50
BestSolutions found: 50
Solutions found: 50
Solved in [us]: 1664.056
Time per solution [us]: 33.28112
Absolute error: 0
Absolute error per item: 0.0
--------------------------------------------

